%YAML 1.1
%TAG !u! tag:unity3d.com,2011:
--- !u!74 &7400000
AnimationClip:
  m_ObjectHideFlags: 0
  m_CorrespondingSourceObject: {fileID: 0}
  m_PrefabInstance: {fileID: 0}
  m_PrefabAsset: {fileID: 0}
  m_Name: Alarm
  serializedVersion: 6
  m_Legacy: 0
  m_Compressed: 0
  m_UseHighQualityCurve: 1
  m_RotationCurves: []
  m_CompressedRotationCurves: []
  m_EulerCurves: []
  m_PositionCurves: []
  m_ScaleCurves: []
  m_FloatCurves: []
  m_PPtrCurves:
  - curve:
    - time: 0
      value: {fileID: 21300000, guid: f71f06f8cd3bd76498a20a6a3fdea2dd, type: 3}
    - time: 0.09090909
      value: {fileID: 21300000, guid: b366422ca2c5ec045bec8ae8dbd314c2, type: 3}
    - time: 0.18181819
      value: {fileID: 21300000, guid: f50d2df76748aea4a975ccf6bf9773af, type: 3}
    - time: 0.27272728
      value: {fileID: 21300000, guid: d1442e6d929ae8741b6b165e7f295359, type: 3}
    - time: 0.36363637
      value: {fileID: 21300000, guid: 713175b636d77af4e8bcecc6064b05b3, type: 3}
    - time: 0.45454547
      value: {fileID: 21300000, guid: d585d26694939a441aea6e9142257d42, type: 3}
    - time: 0.54545456
      value: {fileID: 21300000, guid: f77594fdb5a6e0b42bfe86428548764f, type: 3}
    - time: 0.6363636
      value: {fileID: 21300000, guid: 30e1a56e681df5642b93b8248b3341e7, type: 3}
    - time: 0.72727275
      value: {fileID: 21300000, guid: 0031765df40055248ae5575027c0655d, type: 3}
    - time: 0.8181818
      value: {fileID: 21300000, guid: 9fc57a6e75d0e14469ba58b6484c8c85, type: 3}
    - time: 0.90909094
      value: {fileID: 21300000, guid: c3308d5405bbc92408b265fec3b566e4, type: 3}
    - time: 1
      value: {fileID: 21300000, guid: 9fc57a6e75d0e14469ba58b6484c8c85, type: 3}
    - time: 1.0909091
      value: {fileID: 21300000, guid: 0031765df40055248ae5575027c0655d, type: 3}
    - time: 1.1818181
      value: {fileID: 21300000, guid: 30e1a56e681df5642b93b8248b3341e7, type: 3}
    - time: 1.2727273
      value: {fileID: 21300000, guid: f77594fdb5a6e0b42bfe86428548764f, type: 3}
    - time: 1.3636364
      value: {fileID: 21300000, guid: d585d26694939a441aea6e9142257d42, type: 3}
    - time: 1.4545455
      value: {fileID: 21300000, guid: 713175b636d77af4e8bcecc6064b05b3, type: 3}
    - time: 1.5454545
      value: {fileID: 21300000, guid: d1442e6d929ae8741b6b165e7f295359, type: 3}
    - time: 1.6363636
      value: {fileID: 21300000, guid: f50d2df76748aea4a975ccf6bf9773af, type: 3}
    - time: 1.7272727
      value: {fileID: 21300000, guid: b366422ca2c5ec045bec8ae8dbd314c2, type: 3}
    attribute: m_Sprite
    path: 
    classID: 212
    script: {fileID: 0}
  m_SampleRate: 11
  m_WrapMode: 0
  m_Bounds:
    m_Center: {x: 0, y: 0, z: 0}
    m_Extent: {x: 0, y: 0, z: 0}
  m_ClipBindingConstant:
    genericBindings:
    - serializedVersion: 2
      path: 0
      attribute: 0
      script: {fileID: 0}
      typeID: 212
      customType: 23
      isPPtrCurve: 1
    pptrCurveMapping:
    - {fileID: 21300000, guid: f71f06f8cd3bd76498a20a6a3fdea2dd, type: 3}
    - {fileID: 21300000, guid: b366422ca2c5ec045bec8ae8dbd314c2, type: 3}
    - {fileID: 21300000, guid: f50d2df76748aea4a975ccf6bf9773af, type: 3}
    - {fileID: 21300000, guid: d1442e6d929ae8741b6b165e7f295359, type: 3}
    - {fileID: 21300000, guid: 713175b636d77af4e8bcecc6064b05b3, type: 3}
    - {fileID: 21300000, guid: d585d26694939a441aea6e9142257d42, type: 3}
    - {fileID: 21300000, guid: f77594fdb5a6e0b42bfe86428548764f, type: 3}
    - {fileID: 21300000, guid: 30e1a56e681df5642b93b8248b3341e7, type: 3}
    - {fileID: 21300000, guid: 0031765df40055248ae5575027c0655d, type: 3}
    - {fileID: 21300000, guid: 9fc57a6e75d0e14469ba58b6484c8c85, type: 3}
    - {fileID: 21300000, guid: c3308d5405bbc92408b265fec3b566e4, type: 3}
    - {fileID: 21300000, guid: 9fc57a6e75d0e14469ba58b6484c8c85, type: 3}
    - {fileID: 21300000, guid: 0031765df40055248ae5575027c0655d, type: 3}
    - {fileID: 21300000, guid: 30e1a56e681df5642b93b8248b3341e7, type: 3}
    - {fileID: 21300000, guid: f77594fdb5a6e0b42bfe86428548764f, type: 3}
    - {fileID: 21300000, guid: d585d26694939a441aea6e9142257d42, type: 3}
    - {fileID: 21300000, guid: 713175b636d77af4e8bcecc6064b05b3, type: 3}
    - {fileID: 21300000, guid: d1442e6d929ae8741b6b165e7f295359, type: 3}
    - {fileID: 21300000, guid: f50d2df76748aea4a975ccf6bf9773af, type: 3}
    - {fileID: 21300000, guid: b366422ca2c5ec045bec8ae8dbd314c2, type: 3}
  m_AnimationClipSettings:
    serializedVersion: 2
    m_AdditiveReferencePoseClip: {fileID: 0}
    m_AdditiveReferencePoseTime: 0
    m_StartTime: 0
    m_StopTime: 1.8181819
    m_OrientationOffsetY: 0
    m_Level: 0
    m_CycleOffset: 0
    m_HasAdditiveReferencePose: 0
    m_LoopTime: 1
    m_LoopBlend: 0
    m_LoopBlendOrientation: 0
    m_LoopBlendPositionY: 0
    m_LoopBlendPositionXZ: 0
    m_KeepOriginalOrientation: 0
    m_KeepOriginalPositionY: 1
    m_KeepOriginalPositionXZ: 0
    m_HeightFromFeet: 0
    m_Mirror: 0
  m_EditorCurves: []
  m_EulerEditorCurves: []
  m_HasGenericRootTransform: 0
  m_HasMotionFloatCurves: 0
  m_Events: []
